Linked: (/home/b/catkin_ws_berlindynamics/devel/.private/assignment2_publisher_subscriber/lib/pkgconfig/assignment2_publisher_subscriber.pc, /home/b/catkin_ws_berlindynamics/devel/lib/pkgconfig/assignment2_publisher_subscriber.pc)
Linked: (/home/b/catkin_ws_berlindynamics/devel/.private/assignment2_publisher_subscriber/share/assignment2_publisher_subscriber/cmake/assignment2_publisher_subscriberConfig.cmake, /home/b/catkin_ws_berlindynamics/devel/share/assignment2_publisher_subscriber/cmake/assignment2_publisher_subscriberConfig.cmake)
Linked: (/home/b/catkin_ws_berlindynamics/devel/.private/assignment2_publisher_subscriber/share/assignment2_publisher_subscriber/cmake/assignment2_publisher_subscriberConfig-version.cmake, /home/b/catkin_ws_berlindynamics/devel/share/assignment2_publisher_subscriber/cmake/assignment2_publisher_subscriberConfig-version.cmake)
